Functions
…
# First Minister's COVID speeches

---

## 🏁 Start with

<img src="img/fm-speeches.png" width="75%" style="display: block; margin: auto;" />

---

## End with 🛑

```
## # A tibble: 218 x 6
##    title     date       location   abstract     text     url     
##    <chr>     <date>     <chr>      <chr>        <chr>    <chr>   
##  1 Coronavi~ 2021-04-20 St Andrew~ Statement g~ "Good a~ https:/~
##  2 Coronavi~ 2021-04-13 St Andrew~ Statement g~ "Thanks~ https:/~
##  3 Coronavi~ 2021-04-06 St Andrew~ Statement g~ "Good a~ https:/~
##  4 Coronavi~ 2021-03-30 St Andrew~ Statement g~ "Thanks~ https:/~
##  5 Coronavi~ 2021-03-24 Scottish ~ Statement g~ "Thank ~ https:/~
##  6 Coronavi~ 2021-03-23 The Scott~ Statement g~ "Presid~ https:/~
##  7 Coronavi~ 2021-03-18 Scottish ~ Statement g~ "Thank ~ https:/~
##  8 Coronavi~ 2021-03-17 St Andrew~ Statement g~ "\nGood~ https:/~
##  9 Coronavi~ 2021-03-16 Scottish ~ Statement g~ "Presid~ https:/~
## 10 Coronavi~ 2021-03-15 St Andrew~ Statement g~ "\nGood~ https:/~
## 11 Coronavi~ 2021-03-11 Scottish ~ Statement g~ "I can ~ https:/~
## 12 Coronavi~ 2021-03-09 Scottish ~ Statement g~ "Presid~ https:/~
## 13 Coronavi~ 2021-03-05 Scottish ~ Parliamenta~ "Hello.~ https:/~
## 14 Coronavi~ 2021-03-04 Scottish ~ Parliamenta~ "I will~ https:/~
## 15 Coronavi~ 2021-03-02 Scottish ~ Statement g~ "Presid~ https:/~
## # ... with 203 more rows
```
…
# First Minister's COVID speeches

---

## 🏁 Start with

<img src="img/fm-speeches.png" width="75%" style="display: block; margin: auto;" />

---

## End with 🛑

```
## # A tibble: 218 x 6
##    title     date       location   abstract     text     url     
##    <chr>     <date>     <chr>      <chr>        <chr>    <chr>   
##  1 Coronavi~ 2021-04-20 St Andrew~ Statement g~ "Good a~ https:/~
##  2 Coronavi~ 2021-04-13 St Andrew~ Statement g~ "Thanks~ https:/~
##  3 Coronavi~ 2021-04-06 St Andrew~ Statement g~ "Good a~ https:/~
##  4 Coronavi~ 2021-03-30 St Andrew~ Statement g~ "Thanks~ https:/~
##  5 Coronavi~ 2021-03-24 Scottish ~ Statement g~ "Thank ~ https:/~
##  6 Coronavi~ 2021-03-23 The Scott~ Statement g~ "Presid~ https:/~
##  7 Coronavi~ 2021-03-18 Scottish ~ Statement g~ "Thank ~ https:/~
##  8 Coronavi~ 2021-03-17 St Andrew~ Statement g~ "\nGood~ https:/~
##  9 Coronavi~ 2021-03-16 Scottish ~ Statement g~ "Presid~ https:/~
## 10 Coronavi~ 2021-03-15 St Andrew~ Statement g~ "\nGood~ https:/~
## 11 Coronavi~ 2021-03-11 Scottish ~ Statement g~ "I can ~ https:/~
## 12 Coronavi~ 2021-03-09 Scottish ~ Statement g~ "Presid~ https:/~
## 13 Coronavi~ 2021-03-05 Scottish ~ Parliamenta~ "Hello.~ https:/~
## 14 Coronavi~ 2021-03-04 Scottish ~ Parliamenta~ "I will~ https:/~
## 15 Coronavi~ 2021-03-02 Scottish ~ Statement g~ "Presid~ https:/~
## # ... with 203 more rows
```
…
```r
covid_speeches <- map_dfr(covid_speech_urls, scrape_speech)
```

---

```r
covid_speeches %>%
  print(n = 15)
```

```
## # A tibble: 218 x 6
##    title     date       location   abstract     text     url     
##    <chr>     <date>     <chr>      <chr>        <chr>    <chr>   
##  1 Coronavi~ 2021-04-20 St Andrew~ Statement g~ "Good a~ https:/~
##  2 Coronavi~ 2021-04-13 St Andrew~ Statement g~ "Thanks~ https:/~
##  3 Coronavi~ 2021-04-06 St Andrew~ Statement g~ "Good a~ https:/~
##  4 Coronavi~ 2021-03-30 St Andrew~ Statement g~ "Thanks~ https:/~
##  5 Coronavi~ 2021-03-24 Scottish ~ Statement g~ "Thank ~ https:/~
##  6 Coronavi~ 2021-03-23 The Scott~ Statement g~ "Presid~ https:/~
##  7 Coronavi~ 2021-03-18 Scottish ~ Statement g~ "Thank ~ https:/~
##  8 Coronavi~ 2021-03-17 St Andrew~ Statement g~ "\nGood~ https:/~
##  9 Coronavi~ 2021-03-16 Scottish ~ Statement g~ "Presid~ https:/~
## 10 Coronavi~ 2021-03-15 St Andrew~ Statement g~ "\nGood~ https:/~
## 11 Coronavi~ 2021-03-11 Scottish ~ Statement g~ "I can ~ https:/~
## 12 Coronavi~ 2021-03-09 Scottish ~ Statement g~ "Presid~ https:/~
## 13 Coronavi~ 2021-03-05 Scottish ~ Parliamenta~ "Hello.~ https:/~
## 14 Coronavi~ 2021-03-04 Scottish ~ Parliamenta~ "I will~ https:/~
## 15 Coronavi~ 2021-03-02 Scottish ~ Statement g~ "Presid~ https:/~
## # ... with 203 more rows
```
…
