…
``` r
text_df %>%
  unnest_tokens(word, text)
```

    ## # A tibble: 32 x 2
    ##     line word   
    ##    <int> <chr>  
    ##  1     1 take   
    ##  2     1 me     
    ##  3     1 out    
    ##  4     1 tonight
    ##  5     2 where  
    ##  6     2 there's
    ##  7     2 music  
    ##  8     2 and    
    ##  9     2 there's
    ## 10     2 people 
    ## # ... with 22 more rows

#### What is your favorite song?

(Excluding those with derogatory words)

``` r
listening <- read_csv("data/listening.csv")
listening
```

    ## # A tibble: 104 x 1
    ##    songs                                                                        
    ##    <chr>                                                                        
    ##  1 Gamma Knife - King Gizzard and the Lizard Wizard; Self Immolate - King Gizza~
    ##  2 I dont listen to much music                                                  
    ##  3 Mess by Ed Sheeran, Take me back to london by Ed Sheeran and Sounds of the S~
    ##  4 Hate Me (Sometimes) - Stand Atlantic; Edge of Seventeen - Stevie Nicks; It's~
    ##  5 whistle, gogobebe, sassy me                                                  
    ##  6 Shofukan, Think twice, Padiddle                                              
    ##  7 Groundislava - Feel the Heat (Indecorum Remix), Nominal - Everyday Everyone ~
    ##  8 Loving you - passion the musical, Senorita - Shawn Mendes and Camilla Cabell~
    ##  9 lay it down slow - spiritualised, dead boys - Sam Fender, figure it out - Ro~
    ## 10 Don't Stop Me Now (Queen), Finale (Toby Fox), Machine in the Walls (Mudeth)  
    ## # ... with 94 more rows

#### Looking for commonalities

``` r
listening %>%
  unnest_tokens(word, songs) %>%
  count(word, sort = TRUE)
```

    ## # A tibble: 786 x 2
    ##    word      n
    ##    <chr> <int>
    ##  1 the      56
    ##  2 by       23
    ##  3 to       20
    ##  4 and      19
    ##  5 i        19
    ##  6 you      15
    ##  7 of       13
    ##  8 a        11
    ##  9 in       11
    ## 10 me       10
    ## # ... with 776 more rows
#### Stop words

-   In computing, stop words are words which are filtered out before or
    after processing of natural language data (text).
-   They usually refer to the most common words in a language, but there
    is not a single list of stop words used by all natural language
    processing tools.

#### English stop words

``` r
get_stopwords()
```

    ## # A tibble: 175 x 2
    ##    word      lexicon 
    ##    <chr>     <chr>   
    ##  1 i         snowball
    ##  2 me        snowball
    ##  3 my        snowball
    ##  4 myself    snowball
    ##  5 we        snowball
    ##  6 our       snowball
    ##  7 ours      snowball
    ##  8 ourselves snowball
    ##  9 you       snowball
    ## 10 your      snowball
    ## # ... with 165 more rows

#### Spanish stop words

``` r
get_stopwords(language = "es")
```

    ## # A tibble: 308 x 2
    ##    word  lexicon 
    ##    <chr> <chr>   
    ##  1 de    snowball
    ##  2 la    snowball
    ##  3 que   snowball
    ##  4 el    snowball
    ##  5 en    snowball
    ##  6 y     snowball
    ##  7 a     snowball
    ##  8 los   snowball
    ##  9 del   snowball
    ## 10 se    snowball
    ## # ... with 298 more rows

#### Various lexicons

See `?get_stopwords` for more info.

``` r
get_stopwords(source = "smart")
```

    ## # A tibble: 571 x 2
    ##    word        lexicon
    ##    <chr>       <chr>  
    ##  1 a           smart  
    ##  2 a's         smart  
    ##  3 able        smart  
    ##  4 about       smart  
    ##  5 above       smart  
    ##  6 according   smart  
    ##  7 accordingly smart  
    ##  8 across      smart  
    ##  9 actually    smart  
    ## 10 after       smart  
    ## # ... with 561 more rows

#### Back to: Looking for commonalities

``` r
listening %>%
  unnest_tokens(word, songs) %>%
  anti_join(stop_words) %>%                           #<<
  filter(!(word %in% c("1", "2", "3", "4", "5"))) %>% #<<
  count(word, sort = TRUE)
```

    ## Joining, by = "word"

    ## # A tibble: 640 x 2
    ##    word        n
    ##    <chr>   <int>
    ##  1 ed          7
    ##  2 queen       7
    ##  3 sheeran     7
    ##  4 love        6
    ##  5 bad         5
    ##  6 time        5
    ##  7 1975        4
    ##  8 dog         4
    ##  9 king        4
    ## 10 life        4
    ## # ... with 630 more rows
…
``` r
top20_songs <- listening %>%
  unnest_tokens(word, songs) %>%
  anti_join(stop_words) %>%
  filter(
    !(word %in% c("1", "2", "3", "4", "5"))
    ) %>%
  count(word) %>%
  top_n(20)

top20_songs %>%
  arrange(desc(n))
```

    ## # A tibble: 41 x 2
    ##    word        n
    ##    <chr>   <int>
    ##  1 ed          7
    ##  2 queen       7
    ##  3 sheeran     7
    ##  4 love        6
    ##  5 bad         5
    ##  6 time        5
    ##  7 1975        4
    ##  8 dog         4
    ##  9 king        4
    ## 10 life        4
    ## # ... with 31 more rows
…
