Text analysis 📃
…
---

## What is tidy text?

```r
text_df %>%
  unnest_tokens(word, text)
```

```
## # A tibble: 32 x 2
##     line word   
##    <int> <chr>  
##  1     1 take   
##  2     1 me     
##  3     1 out    
##  4     1 tonight
##  5     2 where  
##  6     2 there's
##  7     2 music  
##  8     2 and    
##  9     2 there's
## 10     2 people 
## # ... with 22 more rows
```
…
---

## Looking for commonalities

.midi[

```r
listening %>%
  unnest_tokens(word, songs) %>%
  count(word, sort = TRUE)
```

```
## # A tibble: 67 x 2
##    word         n
##    <chr>    <int>
##  1 by           4
##  2 of           3
##  3 a            2
##  4 anything     2
##  5 sings        2
##  6 swift        2
##  7 taylor       2
##  8 the          2
##  9 tonight      2
## 10 1            1
## # ... with 57 more rows
```
…
## Stop words

- In computing, stop words are words which are filtered out before or after processing of natural language data (text).
- They usually refer to the most common words in a language, but there is not a single list of stop words used by all natural language processing tools.

---

## English stop words

```r
get_stopwords()
```

```
## # A tibble: 175 x 2
##    word      lexicon 
##    <chr>     <chr>   
##  1 i         snowball
##  2 me        snowball
##  3 my        snowball
##  4 myself    snowball
##  5 we        snowball
##  6 our       snowball
##  7 ours      snowball
##  8 ourselves snowball
##  9 you       snowball
## 10 your      snowball
## # ... with 165 more rows
```

---

## Spanish stop words

```r
get_stopwords(language = "es")
```

```
## # A tibble: 308 x 2
##    word  lexicon 
##    <chr> <chr>   
##  1 de    snowball
##  2 la    snowball
##  3 que   snowball
##  4 el    snowball
##  5 en    snowball
##  6 y     snowball
##  7 a     snowball
##  8 los   snowball
##  9 del   snowball
## 10 se    snowball
## # ... with 298 more rows
```

---

## Various lexicons

See `?get_stopwords` for more info.

.midi[

```r
get_stopwords(source = "smart")
```

```
## # A tibble: 571 x 2
##    word        lexicon
##    <chr>       <chr>  
##  1 a           smart  
##  2 a's         smart  
##  3 able        smart  
##  4 about       smart  
##  5 above       smart  
##  6 according   smart  
##  7 accordingly smart  
##  8 across      smart  
##  9 actually    smart  
## 10 after       smart  
## # ... with 561 more rows
```
…
```r
listening %>%
  unnest_tokens(word, songs) %>%
* anti_join(stop_words) %>%
* dplyr::filter(!(word %in% c("1", "2", "3", "4", "5"))) %>%
  count(word, sort = TRUE)
```

```
## Joining, by = "word"
```

```
## # A tibble: 51 x 2
##    word        n
##    <chr>   <int>
##  1 sings       2
##  2 swift       2
##  3 taylor      2
##  4 tonight     2
##  5 10          1
##  6 anthem      1
##  7 brice       1
##  8 buggles     1
##  9 chella      1
## 10 combs       1
## # ... with 41 more rows
```
…
```r
top20_songs %>%
  arrange(desc(n))
```

```
## # A tibble: 51 x 2
##    word        n
##    <chr>   <int>
##  1 sings       2
##  2 swift       2
##  3 taylor      2
##  4 tonight     2
##  5 10          1
##  6 anthem      1
##  7 brice       1
##  8 buggles     1
##  9 chella      1
## 10 combs       1
## # ... with 41 more rows
```
…
]

---

## Tidy up your lyrics!

```r
artist_lyrics <- artist %>%
  unnest_tokens(word, lyric)

artist_lyrics
```

```
## # A tibble: 11,551 x 5
##    artist       album                  track_n track_title                word  
##    <chr>        <chr>                    <int> <chr>                      <chr> 
##  1 Taylor Swift Red (Taylor's Version)       1 State of Grace (Taylor's ~ i'm   
##  2 Taylor Swift Red (Taylor's Version)       1 State of Grace (Taylor's ~ walkin
##  3 Taylor Swift Red (Taylor's Version)       1 State of Grace (Taylor's ~ fast  
##  4 Taylor Swift Red (Taylor's Version)       1 State of Grace (Taylor's ~ throu~
##  5 Taylor Swift Red (Taylor's Version)       1 State of Grace (Taylor's ~ the   
##  6 Taylor Swift Red (Taylor's Version)       1 State of Grace (Taylor's ~ traff~
##  7 Taylor Swift Red (Taylor's Version)       1 State of Grace (Taylor's ~ lights
##  8 Taylor Swift Red (Taylor's Version)       1 State of Grace (Taylor's ~ busy  
##  9 Taylor Swift Red (Taylor's Version)       1 State of Grace (Taylor's ~ stree~
## 10 Taylor Swift Red (Taylor's Version)       1 State of Grace (Taylor's ~ and   
## # ... with 11,541 more rows
```

---

## What are the most common words?

```r
artist_lyrics %>%
  count(word, sort = TRUE)
```

```
## # A tibble: 1,292 x 2
##    word      n
##    <chr> <int>
##  1 you     606
##  2 i       495
##  3 and     390
##  4 the     360
##  5 oh      251
##  6 to      190
##  7 a       184
##  8 in      183
##  9 it      181
## 10 me      174
## # ... with 1,282 more rows
```
…
.midi[

```r
artist_lyrics %>%
  anti_join(stop_words) %>%
  count(word, sort = TRUE)
```

```
## Joining, by = "word"
```

```
## # A tibble: 955 x 2
##    word         n
##    <chr>    <int>
##  1 time       100
##  2 ooh         76
##  3 run         57
##  4 love        54
##  5 red         53
##  6 yeah        47
##  7 night       40
##  8 remember    39
##  9 trouble     34
## 10 stay        33
## # ... with 945 more rows
```
…
- One way to analyze the sentiment of a text is to consider the text as a combination of its individual words 
- and the sentiment content of the whole text as the sum of the sentiment content of the individual words

---

## Sentiment lexicons

.pull-left[

```r
get_sentiments("afinn")
```

```
## # A tibble: 2,477 x 2
##    word       value
##    <chr>      <dbl>
##  1 abandon       -2
##  2 abandoned     -2
##  3 abandons      -2
##  4 abducted      -2
##  5 abduction     -2
##  6 abductions    -2
##  7 abhor         -3
##  8 abhorred      -3
##  9 abhorrent     -3
## 10 abhors        -3
## # ... with 2,467 more rows
```
]
.pull-right[

```r
get_sentiments("bing") 
```

```
## # A tibble: 6,786 x 2
##    word        sentiment
##    <chr>       <chr>    
##  1 2-faces     negative 
##  2 abnormal    negative 
##  3 abolish     negative 
##  4 abominable  negative 
##  5 abominably  negative 
##  6 abominate   negative 
##  7 abomination negative 
##  8 abort       negative 
##  9 aborted     negative 
## 10 aborts      negative 
## # ... with 6,776 more rows
```
]

---

## Sentiment lexicons

.pull-left[

```r
get_sentiments("nrc")
```

```
## # A tibble: 13,875 x 2
##    word        sentiment
##    <chr>       <chr>    
##  1 abacus      trust    
##  2 abandon     fear     
##  3 abandon     negative 
##  4 abandon     sadness  
##  5 abandoned   anger    
##  6 abandoned   fear     
##  7 abandoned   negative 
##  8 abandoned   sadness  
##  9 abandonment anger    
## 10 abandonment fear     
## # ... with 13,865 more rows
```
]
.pull-right[

```r
get_sentiments("loughran") 
```

```
## # A tibble: 3,850 x 2
##    word         sentiment
##    <chr>        <chr>    
##  1 abandon      negative 
##  2 abandoned    negative 
##  3 abandoning   negative 
##  4 abandonment  negative 
##  5 abandonments negative 
##  6 abandons     negative 
##  7 abdicated    negative 
##  8 abdicates    negative 
##  9 abdicating   negative 
## 10 abdication   negative 
## # ... with 3,840 more rows
```
…
.midi[

```r
artist_lyrics %>%
  inner_join(get_sentiments("bing")) %>%
  count(sentiment, word, sort = TRUE)
```

```
## Joining, by = "word"
```

```
## # A tibble: 194 x 3
##    sentiment word         n
##    <chr>     <chr>    <int>
##  1 positive  like       131
##  2 positive  love        54
##  3 positive  better      50
##  4 negative  trouble     34
##  5 positive  well        24
##  6 negative  miss        23
##  7 positive  right       21
##  8 negative  mad         15
##  9 positive  best        15
## 10 positive  promises    15
## # ... with 184 more rows
```
…
### Step 1: Top 10 words for each sentiment

.midi[

```r
artist_lyrics %>%
  inner_join(get_sentiments("bing")) %>%
  count(sentiment, word) %>%
  group_by(sentiment) %>%
  top_n(10) 
```

```
## # A tibble: 22 x 3
## # Groups:   sentiment [2]
##    sentiment word            n
##    <chr>     <chr>       <int>
##  1 negative  break          14
##  2 negative  fall           14
##  3 negative  funny           7
##  4 negative  hard            9
##  5 negative  lost            8
##  6 negative  mad            15
##  7 negative  miss           23
##  8 negative  sad             8
##  9 negative  shame           9
## 10 negative  treacherous     7
## # ... with 12 more rows
```
…
### Step 2: `ungroup()`

.midi[

```r
artist_lyrics %>%
  inner_join(get_sentiments("bing")) %>%
  count(sentiment, word) %>%
  group_by(sentiment) %>%
  top_n(10) %>%
  ungroup()
```

```
## # A tibble: 22 x 3
##    sentiment word            n
##    <chr>     <chr>       <int>
##  1 negative  break          14
##  2 negative  fall           14
##  3 negative  funny           7
##  4 negative  hard            9
##  5 negative  lost            8
##  6 negative  mad            15
##  7 negative  miss           23
##  8 negative  sad             8
##  9 negative  shame           9
## 10 negative  treacherous     7
## # ... with 12 more rows
```
…
.small[

```r
artist_lyrics %>%
  anti_join(stop_words) %>%
  left_join(get_sentiments("afinn")) 
```

```
## Joining, by = "word"
## Joining, by = "word"
```

```
## # A tibble: 3,058 x 6
##    artist       album                  track_n track_title          word   value
##    <chr>        <chr>                    <int> <chr>                <chr>  <dbl>
##  1 Taylor Swift Red (Taylor's Version)       1 State of Grace (Tay~ walkin    NA
##  2 Taylor Swift Red (Taylor's Version)       1 State of Grace (Tay~ fast      NA
##  3 Taylor Swift Red (Taylor's Version)       1 State of Grace (Tay~ traff~    NA
##  4 Taylor Swift Red (Taylor's Version)       1 State of Grace (Tay~ lights    NA
##  5 Taylor Swift Red (Taylor's Version)       1 State of Grace (Tay~ busy      NA
##  6 Taylor Swift Red (Taylor's Version)       1 State of Grace (Tay~ stree~    NA
##  7 Taylor Swift Red (Taylor's Version)       1 State of Grace (Tay~ busy      NA
##  8 Taylor Swift Red (Taylor's Version)       1 State of Grace (Tay~ lives     NA
##  9 Taylor Swift Red (Taylor's Version)       1 State of Grace (Tay~ touch     NA
## 10 Taylor Swift Red (Taylor's Version)       1 State of Grace (Tay~ chang~    NA
## # ... with 3,048 more rows
```
…
---

## What are the most common words?

What do you predict will happen if we run the following code? 🤔

```r
tidy_book %>%
  count(word, sort = TRUE)
```

```
## # A tibble: 12,559 x 2
##    word      n
##    <chr> <int>
##  1 the   11494
##  2 of     7152
##  3 and    6283
##  4 to     5178
##  5 i      2957
##  6 in     2816
##  7 a      2635
##  8 her    2319
##  9 was    2296
## 10 that   1894
## # ... with 12,549 more rows
```

---

# Stop words
.pull-left[

```r
get_stopwords(language = "en")
```

```
## # A tibble: 175 x 2
##    word      lexicon 
##    <chr>     <chr>   
##  1 i         snowball
##  2 me        snowball
##  3 my        snowball
##  4 myself    snowball
##  5 we        snowball
##  6 our       snowball
##  7 ours      snowball
##  8 ourselves snowball
##  9 you       snowball
## 10 your      snowball
## # ... with 165 more rows
```
]
.pull-right[

```r
get_stopwords(source = "smart")
```

```
## # A tibble: 571 x 2
##    word        lexicon
##    <chr>       <chr>  
##  1 a           smart  
##  2 a's         smart  
##  3 able        smart  
##  4 about       smart  
##  5 above       smart  
##  6 according   smart  
##  7 accordingly smart  
##  8 across      smart  
##  9 actually    smart  
## 10 after       smart  
## # ... with 561 more rows
```
…
class: center, middle

# SENTIMENT ANALYSIS 😄 😢 😠

---

## Sentiment lexicons

```r
get_sentiments("afinn")
```

```
## # A tibble: 2,477 x 2
##    word       value
##    <chr>      <dbl>
##  1 abandon       -2
##  2 abandoned     -2
##  3 abandons      -2
##  4 abducted      -2
##  5 abduction     -2
##  6 abductions    -2
##  7 abhor         -3
##  8 abhorred      -3
##  9 abhorrent     -3
## 10 abhors        -3
## # ... with 2,467 more rows
```
…
What do you predict will happen if we run the following code? 🤔

```r
tidy_book %>%
  inner_join(get_sentiments("bing")) %>%            
* count(sentiment, word, sort = TRUE)
```

```
## Joining, by = "word"
```

```
## # A tibble: 2,240 x 3
##   sentiment word       n
##   <chr>     <chr>  <int>
## 1 positive  love     272
## 2 negative  death    218
## 3 positive  like     183
## 4 negative  fear     138
## 5 negative  plague   128
## 6 negative  lost     116
## 7 negative  dead     107
## # ... with 2,233 more rows
```
…
---

## **Understanding tf-idf**

Make a collection (*corpus*) for yourself! 💅

```r
full_collection
```

```
## # A tibble: 24,169 x 3
##    gutenberg_id text                             title       
##           <int> <chr>                            <chr>       
##  1        18247 "The Last Man"                   The Last Man
##  2        18247 ""                               The Last Man
##  3        18247 "by Mary Wollstonecraft Shelley" The Last Man
##  4        18247 ""                               The Last Man
##  5        18247 "LONDON:"                        The Last Man
##  6        18247 "HENRY COLBURN."                 The Last Man
##  7        18247 "1826."                          The Last Man
##  8        18247 ""                               The Last Man
##  9        18247 ""                               The Last Man
## 10        18247 "Contents"                       The Last Man
## # ... with 24,159 more rows
```
…
---

## Calculating tf-idf

That's... super exciting???

```r
book_tfidf
```

```
## # A tibble: 19,879 x 6
##    title                                   word      n     tf   idf tf_idf
##    <chr>                                   <chr> <int>  <dbl> <dbl>  <dbl>
##  1 The Last Man                            the   11494 0.0651     0      0
##  2 The Last Man                            of     7152 0.0405     0      0
##  3 The Last Man                            and    6283 0.0356     0      0
##  4 The Last Man                            to     5178 0.0293     0      0
##  5 Frankenstein; Or, The Modern Prometheus the    4407 0.0563     0      0
##  6 Frankenstein; Or, The Modern Prometheus and    3058 0.0391     0      0
##  7 The Last Man                            i      2957 0.0167     0      0
##  8 Frankenstein; Or, The Modern Prometheus i      2931 0.0374     0      0
##  9 The Last Man                            in     2816 0.0159     0      0
## 10 Frankenstein; Or, The Modern Prometheus of     2806 0.0358     0      0
## # ... with 19,869 more rows
```
…
---

## Calculating tf-idf

What do you predict will happen if we run the following code? 🤔

```r
book_tfidf %>%
    arrange(-tf_idf)
```

```
## # A tibble: 19,879 x 6
##   title                                   word          n       tf   idf  tf_idf
##   <chr>                                   <chr>     <int>    <dbl> <dbl>   <dbl>
## 1 The Last Man                            raymond     340 0.00193  0.693 1.33e-3
## 2 The Last Man                            adrian      285 0.00161  0.693 1.12e-3
## 3 The Last Man                            idris       230 0.00130  0.693 9.03e-4
## 4 The Last Man                            perdita     212 0.00120  0.693 8.32e-4
## 5 Frankenstein; Or, The Modern Prometheus elizabeth    88 0.00112  0.693 7.79e-4
## 6 Frankenstein; Or, The Modern Prometheus clerval      59 0.000754 0.693 5.22e-4
## 7 The Last Man                            plague      128 0.000725 0.693 5.02e-4
## 8 Frankenstein; Or, The Modern Prometheus justine      54 0.000690 0.693 4.78e-4
## # ... with 19,871 more rows
```
…
tidy_ngram <- full_text %>%
*   unnest_tokens(bigram, text, token = "ngrams", n = 2) %>%
    dplyr::filter(!is.na(bigram))
```

---

## N-grams... and beyond! 🚀

```r
tidy_ngram
```

```
## # A tibble: 161,503 x 2
##    gutenberg_id bigram                
##           <int> <chr>                 
##  1        18247 the last              
##  2        18247 last man              
##  3        18247 by mary               
##  4        18247 mary wollstonecraft   
##  5        18247 wollstonecraft shelley
##  6        18247 henry colburn         
##  7        18247 vol i                 
##  8        18247 chapter i             
##  9        18247 chapter ii            
## 10        18247 chapter iii           
## # ... with 161,493 more rows
```

---

## N-grams... and beyond! 🚀

```r
tidy_ngram %>%
    count(bigram, sort = TRUE)
```

```
## # A tibble: 86,556 x 2
##    bigram       n
##    <chr>    <int>
##  1 of the    1424
##  2 in the     676
##  3 to the     648
##  4 and the    443
##  5 on the     402
##  6 from the   325
##  7 of her     282
##  8 by the     277
##  9 of his     267
## 10 it was     266
## # ... with 86,546 more rows
```
…
---

## N-grams... and beyond! 🚀

```r
bigram_counts
```

```
## # A tibble: 15,647 x 3
##    word1   word2         n
##    <chr>   <chr>     <int>
##  1 lord    raymond      36
##  2 fellow  creatures    13
##  3 country people       12
##  4 lord    protector    12
##  5 human   race         11
##  6 windsor castle       11
##  7 chapter iv            8
##  8 ill     fated         8
##  9 poor    girl          8
## 10 heart   beat          7
## # ... with 15,637 more rows
```
…
